code|titles|parameters|plugincode|parenttypecode|defaultconfig|locked|maingroup
messages_system|"<?xml version='"1.0'" encoding='"UTF-8'"?>
<properties>
<property key='"en'">System Messages</property>
<property key='"it'">Messaggi di Sistema</property>
</properties>"|||||1|
login_form|"<?xml version='"1.0'" encoding='"UTF-8'"?>
<properties>
<property key='"en'">Login Form</property>
<property key='"it'">Form di Login</property>
</properties>"|||||1|
formAction|"<?xml version='"1.0'" encoding='"UTF-8'"?>
<properties>
<property key='"en'">Internal Servlet</property>
<property key='"it'">Invocazione di una Servlet Interna</property>
</properties>"|"<config>
	<parameter name='"actionPath'">
		Path to an action or to a JSP. You must prepend ''/ExtStr2'' to any Struts2 action path
	</parameter>
	<action name='"configSimpleParameter'"/>
</config>"||||1|
entando_apis|"<?xml version='"1.0'" encoding='"UTF-8'"?>
<properties>
<property key='"en'">APIs</property>
<property key='"it'">APIs</property>
</properties>
"|||formAction|"<?xml version='"1.0'" encoding='"UTF-8'"?>
<properties>
<property key='"actionPath'">/ExtStr2/do/Front/Api/Resource/list.action</property>
</properties>
"|1|free
userprofile_editCurrentUser|"<?xml version='"1.0'" encoding='"UTF-8'"?>
<properties>
<property key='"en'">Edit Current User</property>
<property key='"it'">Edita Utente Corrente</property>
</properties>"|||formAction|"<?xml version='"1.0'" encoding='"UTF-8'"?>
<properties>
<property key='"actionPath'">/ExtStr2/do/Front/CurrentUser/edit.action</property>
</properties>"|1|
userprofile_editCurrentUser_password|"<?xml version='"1.0'" encoding='"UTF-8'"?>
<properties>
<property key='"en'">Edit Current User Password</property>
<property key='"it'">Edita Password Utente Corrente</property>
</properties>"|||formAction|"<?xml version='"1.0'" encoding='"UTF-8'"?>
<properties>
<property key='"actionPath'">/ExtStr2/do/Front/CurrentUser/editPassword.action</property>
</properties>"|1|
userprofile_editCurrentUser_profile|"<?xml version='"1.0'" encoding='"UTF-8'"?>
<properties>
<property key='"en'">Edit Current User Profile</property>
<property key='"it'">Edita Profilo Utente Corrente</property>
</properties>"|||formAction|"<?xml version='"1.0'" encoding='"UTF-8'"?>
<properties>
<property key='"actionPath'">/ExtStr2/do/Front/CurrentUser/Profile/edit.action</property>
</properties>"|1|
search_result|"<?xml version='"1.0'" encoding='"UTF-8'"?>
<properties>
<property key='"en'">Search - Search Result</property>
<property key='"it'">Ricerca - Risultati della Ricerca</property>
</properties>"||jacms|||1|
row_content_viewer_list|"<?xml version='"1.0'" encoding='"UTF-8'"?>
<properties>
<property key='"en'">Contents - Publish Contents</property>
<property key='"it'">Contenuti - Pubblica Contenuti</property>
</properties>"|"<config>
	<parameter name='"contents'">Contents to Publish (mandatory)</parameter>
	<parameter name='"maxElemForItem'">Contents for each page</parameter>
	<parameter name='"title_{lang}'">Widget Title in lang {lang}</parameter>
	<parameter name='"pageLink'">The code of the Page to link</parameter>
	<parameter name='"linkDescr_{lang}'">Link description in lang {lang}</parameter>
	<action name='"rowListViewerConfig'" />
</config>"|jacms|||1|free
cagliari_widget_footer_link_utili|"<?xml version='"1.0'" encoding='"UTF-8'"?>
 <properties><property key='"en'">Cagliari - Footer link utili</property><property key='"it'">Cagliari - Footer link utili</property></properties>"|||content_viewer|"<?xml version='"1.0'" encoding='"UTF-8'"?>
<properties><property key='"contentId'">LKL72</property><property key='"modelId'">10011</property></properties>"|1|free
cagliari_widget_header_horizontalmenu|"<?xml version='"1.0'" encoding='"UTF-8'"?> <properties><property key='"en'">Cagliari - Header menu orizzontale</property><property key='"it'">Cagliari - Header menu orizzontale</property></properties>"|||cagliari_widget_navigation_bar|"<?xml version='"1.0'" encoding='"UTF-8'"?>
 <properties><property key='"navSpec'">code(amministrazione) + code(servizi)+code(novita)+ code(documenti)</property></properties>
 "|1|
cagliari_widget_navigation_bar|"<?xml version='"1.0'" encoding='"UTF-8'"?>
<properties><property key='"en'">Cagliari - Navigation bar</property><property key='"it'">Cagliari - Navigazione orizzontale</property></properties>
"|"<config> <parameter name='"navSpec'">Rules for the Page List auto-generation</parameter> <action name='"navigatorConfig'" /> </config>"||||1|free
cagliari_diretta_video|"<?xml version='"1.0'" encoding='"UTF-8'"?>
<properties>
<property key='"en'">Cagliari - Diretta video</property>
<property key='"it'">Cagliari - Diretta video</property>
</properties>

"|||||0|free
content_viewer|"<?xml version='"1.0'" encoding='"UTF-8'"?>
<properties>
<property key='"en'">Contents - Publish a Content</property>
<property key='"it'">Contenuti - Pubblica un Contenuto</property>
</properties>

"|"<config>
	<parameter name='"contentId'">Content ID</parameter>
	<parameter name='"modelId'">Content Model ID</parameter>
	<action name='"viewerConfig'"/>
</config>"|jacms|||1|free
cagliari_widget_footer_menu|"<?xml version='"1.0'" encoding='"UTF-8'"?> <properties><property key='"en'">Cagliari - Footer menu</property><property key='"it'">Cagliari - Footer menu</property></properties> "|||cagliari_widget_footer_bar|"<?xml version='"1.0'" encoding='"UTF-8'"?>
 <properties><property key='"navSpec'">code(amministrazione).subtree(1) + code(servizi).subtree(1)+code(novita).subtree(1)+ code(documenti).subtree(1)</property></properties>
 "|1|free
cagliari_widget_menu_link_utili|"<?xml version='"1.0'" encoding='"UTF-8'"?>
 <properties><property key='"en'">Cagliari - Menu link Argomenti</property><property key='"it'">Cagliari - Menu link Argomenti</property></properties>"|||||1|
content_viewer_list|"<?xml version='"1.0'" encoding='"UTF-8'"?>
<properties>
<property key='"en'">Contents - Publish a List of Contents</property>
<property key='"it'">Contenuti - Pubblica una Lista di Contenuti</property>
</properties>

"|"<config>
	<parameter name='"contentType'">Content Type (mandatory)</parameter>
	<parameter name='"modelId'">Content Model</parameter>
	<parameter name='"userFilters'">Front-End user filter options</parameter>
	<parameter name='"category'">Content Category **deprecated**</parameter>
	<parameter name='"categories'">Content Category codes (comma separeted)</parameter>
	<parameter name='"orClauseCategoryFilter'" />
	<parameter name='"maxElemForItem'">Contents for each page</parameter>
	<parameter name='"maxElements'">Number of contents</parameter>
	<parameter name='"filters'" />
	<parameter name='"title_{lang}'">Widget Title in lang {lang}</parameter>
	<parameter name='"pageLink'">The code of the Page to link</parameter>
	<parameter name='"linkDescr_{lang}'">Link description in lang {lang}</parameter>
	<action name='"listViewerConfig'"/>
</config>"|jacms|||1|free
jpseo_content_viewer|"<?xml version='"1.0'" encoding='"UTF-8'"?>

<properties>

<property key='"en'">Contents - Publish a Content with extra meta-description</property>

<property key='"it'">Contenuti - Pubblica un Contenuto con extra meta-description</property>

</properties>"|"<config>

	<parameter name='"contentId'">Content ID</parameter>

	<parameter name='"modelId'">Content Model ID</parameter>

	<action name='"viewerConfig'"/>

</config>"|jpseo|||1|
cagliari_widget_argomento_dettaglio|"<?xml version='"1.0'" encoding='"UTF-8'"?>
<properties>
<property key='"en'">Cagliari - Argomenti dettaglio</property>
<property key='"it'">Cagliari - Argomenti dettaglio</property>
</properties>

"||whitelabel|||1|free
cagliari_widget_lista_table|"<?xml version='"1.0'" encoding='"UTF-8'"?>
<properties>
<property key='"en'">Cagliari - Lista tabellare</property>
<property key='"it'">Cagliari - Lista tabellare</property>
</properties>"|"<config>
	<parameter name='"contentType'">Content Type (mandatory)</parameter>
	<parameter name='"modelId'">Content Model</parameter>
	<parameter name='"userFilters'">Front-End user filter options</parameter>
	<parameter name='"category'">Content Category **deprecated**</parameter>
	<parameter name='"categories'">Content Category codes (comma separeted)</parameter>
	<parameter name='"orClauseCategoryFilter'" />
	<parameter name='"maxElemForItem'">Contents for each page</parameter>
	<parameter name='"maxElements'">Number of contents</parameter>
	<parameter name='"filters'" />
	<parameter name='"title_{lang}'">Widget Title in lang {lang}</parameter>
	<parameter name='"pageLink'">The code of the Page to link</parameter>
	<parameter name='"linkDescr_{lang}'">Link description in lang {lang}</parameter>
	<action name='"listViewerConfig'"/>
</config>"|whitelabel|||1|
cagliari_widget_inevidenza|"<?xml version='"1.0'" encoding='"UTF-8'"?>
<properties><property key='"en'">Cagliari - Contenuti in 3 colonne</property><property key='"it'">Cagliari - Contenuti in 3 colonne</property></properties>
"|"<config>
	<parameter name='"contents'">Contents to Publish (mandatory)</parameter>
	<parameter name='"maxElemForItem'">Contents for each page</parameter>
	<parameter name='"title_{lang}'">Widget Title in lang {lang}</parameter>
	<parameter name='"pageLink'">The code of the Page to link</parameter>
	<parameter name='"linkDescr_{lang}'">Link description in lang {lang}</parameter>
	<action name='"rowListViewerConfig'" />
</config>"||||1|free
cagliari_widget_inevidenza_homepage|"<?xml version='"1.0'" encoding='"UTF-8'"?>
<properties>
<property key='"en'">Cagliari - In evidenza homepage</property>
<property key='"it'">Cagliari - In evidenza homepage</property>
</properties>

"|"<config>
	<parameter name='"contents'">Contents to Publish (mandatory)</parameter>
	<parameter name='"maxElemForItem'">Contents for each page</parameter>
	<parameter name='"title_{lang}'">Widget Title in lang {lang}</parameter>
	<parameter name='"pageLink'">The code of the Page to link</parameter>
	<parameter name='"linkDescr_{lang}'">Link description in lang {lang}</parameter>
	<action name='"rowListViewerConfig'" />
</config>"||||1|free
cagliari_widget_navigation_child|"<?xml version='"1.0'" encoding='"UTF-8'"?>
<properties><property key='"en'">Cagliari - Menu laterale sottosezioni</property><property key='"it'">Cagliari - Menu laterale sottosezioni</property></properties>
"|||||1|free
cagliari_interne_notfound|"<?xml version='"1.0'" encoding='"UTF-8'"?>
<properties><property key='"en'">Cagliari - Pagina non trovata</property><property key='"it'">Cagliari - Pagina non trovata</property></properties>
"|||||1|free
cagliari_widget_inevidenza_singlerow|"<?xml version='"1.0'" encoding='"UTF-8'"?>
<properties><property key='"en'">Cagliari - Elenco schede 3/2 colonne monoriga</property><property key='"it'">Cagliari - Elenco schede 3/2 colonne monoriga</property></properties>
"|"<config>
	<parameter name='"contents'">Contents to Publish (mandatory)</parameter>
	<parameter name='"maxElemForItem'">Contents for each page</parameter>
	<parameter name='"title_{lang}'">Widget Title in lang {lang}</parameter>
	<parameter name='"pageLink'">The code of the Page to link</parameter>
	<parameter name='"linkDescr_{lang}'">Link description in lang {lang}</parameter>
	<action name='"rowListViewerConfig'" />
</config>"||||1|free
cagliari_widget_argomenti_consigliati|"<?xml version='"1.0'" encoding='"UTF-8'"?>
<properties><property key='"en'">Cagliari - Argomenti consigliati (piccoli)</property><property key='"it'">Cagliari - Argomenti consigliati (piccoli)</property></properties>
"|"<config>
	<parameter name='"contentType'">Content Type (mandatory)</parameter>
	<parameter name='"modelId'">Content Model</parameter>
	<parameter name='"userFilters'">Front-End user filter options</parameter>
	<parameter name='"category'">Content Category **deprecated**</parameter>
	<parameter name='"categories'">Content Category codes (comma separeted)</parameter>
	<parameter name='"orClauseCategoryFilter'" />
	<parameter name='"maxElemForItem'">Contents for each page</parameter>
	<parameter name='"maxElements'">Number of contents</parameter>
	<parameter name='"filters'" />
	<parameter name='"title_{lang}'">Widget Title in lang {lang}</parameter>
	<parameter name='"pageLink'">The code of the Page to link</parameter>
	<parameter name='"linkDescr_{lang}'">Link description in lang {lang}</parameter>
	<action name='"listViewerConfig'"/>
</config>"||||1|free
cagliari_aiuto_uffici|"<?xml version='"1.0'" encoding='"UTF-8'"?>
<properties><property key='"en'">Cagliari - Aiuto uffici</property><property key='"it'">Cagliari - Aiuto uffici</property></properties>
"|||||1|free
cagliari_widget_argomenti_homepage|"<?xml version='"1.0'" encoding='"UTF-8'"?>
<properties><property key='"en'">Cagliari - Argomenti homepage</property><property key='"it'">Cagliari - Argomenti homepage</property></properties>
"|"<config>
	<parameter name='"contents'">Contents to Publish (mandatory)</parameter>
	<parameter name='"maxElemForItem'">Contents for each page</parameter>
	<parameter name='"title_{lang}'">Widget Title in lang {lang}</parameter>
	<parameter name='"pageLink'">The code of the Page to link</parameter>
	<parameter name='"linkDescr_{lang}'">Link description in lang {lang}</parameter>
	<action name='"rowListViewerConfig'" />
</config>"||||1|free
cagliari_widget_calendario_homepage|"<?xml version='"1.0'" encoding='"UTF-8'"?>
<properties><property key='"en'">Cagliari - Calendario homepage con filtri</property><property key='"it'">Cagliari - Calendario homepage con filtri</property></properties>
"|"<config>
	<parameter name='"contentType'">Content Type (mandatory)</parameter>
	<parameter name='"modelId'">Content Model</parameter>
	<parameter name='"userFilters'">Front-End user filter options</parameter>
	<parameter name='"category'">Content Category **deprecated**</parameter>
	<parameter name='"categories'">Content Category codes (comma separeted)</parameter>
	<parameter name='"orClauseCategoryFilter'" />
	<parameter name='"maxElemForItem'">Contents for each page</parameter>
	<parameter name='"maxElements'">Number of contents</parameter>
	<parameter name='"filters'" />
	<parameter name='"title_{lang}'">Widget Title in lang {lang}</parameter>
	<parameter name='"pageLink'">The code of the Page to link</parameter>
	<parameter name='"linkDescr_{lang}'">Link description in lang {lang}</parameter>
	<action name='"listViewerConfig'"/>
</config>"||||1|free
jpavatar_avatar|"<?xml version='"1.0'" encoding='"UTF-8'"?>
<properties>
<property key='"en'">Avatar - Show the current user avatar</property>
<property key='"it'">Avatar - Mostra l''avatar dell''utente corrente</property>
</properties>"||jpavatar|formAction|"<?xml version='"1.0'" encoding='"UTF-8'"?>
<properties>
<property key='"actionPath'">/ExtStr2/do/jpavatar/Front/Avatar/edit.action</property>
</properties>
"|1|
cagliari_widget_cerca_servizi_home|"<?xml version='"1.0'" encoding='"UTF-8'"?>
<properties><property key='"en'">Cagliari - Cerca servizi homepage</property><property key='"it'">Cagliari - Cerca servizi homepage</property></properties>
"|||||1|free
cagliari_widget_footer_bar|"<?xml version='"1.0'" encoding='"UTF-8'"?>
<properties><property key='"en'">Cagliari - Footer bar</property><property key='"it'">Cagliari - Footer menu</property></properties>"|"<config> <parameter name='"navSpec'">Rules for the Page List auto-generation</parameter> <action name='"navigatorConfig'" /> </config>"||||1|free
cagliari_interne_temp|"<?xml version='"1.0'" encoding='"UTF-8'"?>
<properties><property key='"en'">Cagliari - In fase di sviluppo</property><property key='"it'">Cagliari - In fase di sviluppo</property></properties>
"|||||1|free
cagliari_widget_lista_multilayout|"<?xml version='"1.0'" encoding='"UTF-8'"?>
<properties>
<property key='"en'">Cagliari - Lista multi-layout</property>
<property key='"it'">Cagliari - Lista multi-layout</property>
</properties>"|"<config>
	<parameter name='"contentType'">Content Type (mandatory)</parameter>
    <parameter name='"layout'">Layout of content list</parameter>
	<parameter name='"modelId'">Content Model</parameter>
	<parameter name='"modelId2'">Content Model 2</parameter>
	<parameter name='"userFilters'">Front-End user filter options</parameter>
	<parameter name='"category'">Content Category **deprecated**</parameter>
	<parameter name='"categories'">Content Category codes (comma separeted)</parameter>
	<parameter name='"orClauseCategoryFilter'" />	
	<parameter name='"maxElements'">Number of contents</parameter>
	<parameter name='"maxElemForItem'">Contents for each page</parameter>
	<parameter name='"filters'" />
	<parameter name='"title_{lang}'">Widget Title in lang {lang}</parameter>
	<parameter name='"pageLink'">The code of the Page to link</parameter>
	<parameter name='"linkDescr_{lang}'">Link description in lang {lang}</parameter>
	<action name='"listViewerConfigExt'"/>
</config>"|whitelabel|||1|
cagliari_widget_argomenti_inevidenza_img|"<?xml version='"1.0'" encoding='"UTF-8'"?>
<properties>
<property key='"en'">Cagliari - Argomenti in evidenza foto</property>
<property key='"it'">Cagliari - Argomenti in evidenza foto</property>
</properties>"|||||1|free
jprss_rssChannels|"<?xml version='"1.0'" encoding='"UTF-8'"?>
<properties>
<property key='"en'">RSS Channels</property>
<property key='"it'">Canali RSS</property>
</properties>"||jprss|||1|
cagliari_widget_advsearch_results|"<?xml version='"1.0'" encoding='"UTF-8'"?>
<properties><property key='"en'">Cagliari - Ricerca avanzata - Risultati</property><property key='"it'">Cagliari - Ricerca avanzata - Risultati</property></properties>
"|"<config>
    <parameter name='"facetRootNodes'">Facet Category Root</parameter>
    <parameter name='"contentTypesFilter'">Content Type (optional)</parameter>
    <action name='"facetNavTreeConfig'"/>
</config>"|whitelabel|||1|
jpbooking_prenotation|"<?xml version='"1.0'" encoding='"UTF-8'"?>
<properties>
<property key='"en'">Prenotazione Appuntamenti Uffici</property>
<property key='"it'">Prenotazione Appuntamenti Uffici</property>
</properties>"||jpbooking|formAction|"<?xml version='"1.0'" encoding='"UTF-8'"?>
<properties>
<property key='"actionPath'">/ExtStr2/do/jpbooking/Front/Booking/entryPoint.action</property>
</properties>"|1|free
jpgeofeedback_extService|"<?xml version='"1.0'" encoding='"UTF-8'"?>
 <properties>
 <property key='"en'">Geo Feedback - Link a servizio esterno</property>
 <property key='"it'">Geo Feedback - Link a servizio esterno</property>
 </properties>

 "||jpgeofeedback|||1|free
jpgeofeedback_list|"<?xml version='"1.0'" encoding='"UTF-8'"?>
 <properties>
 <property key='"en'">Geo Feedback - List</property>
 <property key='"it'">Geo Feedback - Lista Segnalazioni</property>
 </properties>
 "||jpgeofeedback|formAction|"<?xml version='"1.0'" encoding='"UTF-8'"?>
 <properties>
 <property key='"actionPath'">/ExtStr2/do/jpgeofeedback/Front/Feedback/list</property>
 </properties>
 "|1|free
jpgeofeedback_new|"<?xml version='"1.0'" encoding='"UTF-8'"?>
 <properties>
 <property key='"en'">Geo Feedback - New</property>
 <property key='"it'">Geo Feedback - Nuova Segnalazione</property>
 </properties>
 "||jpgeofeedback|formAction|"<?xml version='"1.0'" encoding='"UTF-8'"?>
 <properties>
 <property key='"actionPath'">/ExtStr2/do/jpgeofeedback/Front/Feedback/new</property>
 </properties>
 "|1|free
jpwebdynamicform_msg_survey_confirm|"<?xml version='"1.0'" encoding='"UTF-8'"?>
<properties><property key='"en'">Dynamic Web Forms -Messaggio avvenuto salvataggio del messaggio Survey</property><property key='"it'">Dynamic Web Forms -Messaggio avvenuto salvataggio del messaggio Survey</property></properties>
"|||||0|free
cagliari_areapersonale_documenti|"<?xml version='"1.0'" encoding='"UTF-8'"?>
<properties>
<property key='"en'">Cagliari - Area personale - Documenti STATICO</property>
<property key='"it'">Cagliari - Area personale - Documenti STATICO</property>
</properties>

"|||||0|free
cagliari_areapersonale_documenti_dett|"<?xml version='"1.0'" encoding='"UTF-8'"?>
<properties>
<property key='"en'">Cagliari - Area personale - Documento dettaglio STATICO</property>
<property key='"it'">Cagliari - Area personale - Documento dettaglio STATICO</property>
</properties>

"|||||0|free
cagliari_areapersonale_impostazioni|"<?xml version='"1.0'" encoding='"UTF-8'"?>
<properties>
<property key='"en'">Cagliari - Area personale - Impostazioni STATICO</property>
<property key='"it'">Cagliari - Area personale - Impostazioni STATICO</property>
</properties>

"|||||0|free
cagliari_areapersonale_pagamenti|"<?xml version='"1.0'" encoding='"UTF-8'"?>
<properties>
<property key='"en'">Cagliari - Area personale - Pagamenti STATICO</property>
<property key='"it'">Cagliari - Area personale - Pagamenti STATICO</property>
</properties>

"|||||0|free
cagliari_areapersonale_pratiche|"<?xml version='"1.0'" encoding='"UTF-8'"?>
<properties>
<property key='"en'">Cagliari - Area personale - Pratiche STATICO</property>
<property key='"it'">Cagliari - Area personale - Pratiche STATICO</property>
</properties>

"|||||0|free
cagliari_areapersonale_profilo|"<?xml version='"1.0'" encoding='"UTF-8'"?>
<properties>
<property key='"en'">Cagliari - Area personale - Profilo STATICO</property>
<property key='"it'">Cagliari - Area personale - Profilo STATICO</property>
</properties>

"|||||0|free
cagliari_areapersonale_aiuto|"<?xml version='"1.0'" encoding='"UTF-8'"?>
<properties>
<property key='"en'">Cagliari - Area personale - Aiuto</property>
<property key='"it'">Cagliari - Area personale - Aiuto</property>
</properties>

"|||||1|free
jpwebdynamicform_message_form_survey|"<?xml version='"1.0'" encoding='"UTF-8'"?>
<properties><property key='"en'">Dynamic Web Forms - Publish the form for a Survey Message Type</property><property key='"it'">Dynamic Web Forms - Pubblica il form di un tipo di Messaggio Survey</property></properties>
"|"<config>
	<parameter name='"typeCode'">Code of the Message Type</parameter>
	<parameter name='"formProtectionType'">Protection type of the form</parameter>
	<action name='"webdynamicformConfig'"/>
</config>"|jpwebdynamicform|||0|free
jpwebdynamicform_widget_alreadyCompiled|"<?xml version='"1.0'" encoding='"UTF-8'"?>
<properties><property key='"en'">Dynamic Web Forms -Messaggio questionario già compilato</property><property key='"it'">Dynamic Web Forms -Messaggio questionario già compilato</property></properties>
"|||||0|free
jpwedbooking_prenotation|"<?xml version='"1.0'" encoding='"UTF-8'"?>
<properties>
<property key='"en'">Prenotazione Sala Matrimoni</property>
<property key='"it'">Prenotazione Sala Matrimoni</property>
</properties>"||jpwedbooking|formAction|"<?xml version='"1.0'" encoding='"UTF-8'"?>
<properties>
<property key='"actionPath'">/ExtStr2/do/jpwedbooking/Front/Wedbooking/entryPoint.action</property>
</properties>"|1|free
jpspid_login_form|"<?xml version='"1.0'" encoding='"UTF-8'"?>
<properties>
<property key='"en'">Spid Login Form</property>
<property key='"it'">Form di Login con accesso SPID</property>
</properties>"||jpspid|||1|free
jpspid_user_dashboard|"<?xml version='"1.0'" encoding='"UTF-8'"?>
 <properties><property key='"en'">Dashboard Utente</property><property key='"it'">Dashboard Utente</property></properties>
 "||jpspid|formAction|"<?xml version='"1.0'" encoding='"UTF-8'"?>
 <properties>
 <property key='"actionPath'">/ExtStr2/do/jpspid/Dashboard/view.action</property>
 </properties>"|1|
jpspid_user_registration_profile|"<?xml version='"1.0'" encoding='"UTF-8'"?>
<properties><property key='"en'">Spid - Registrazione Utente</property><property key='"it'">Spid - Registrazione Utente</property></properties>
"||jpspid|formAction|"<?xml version='"1.0'" encoding='"UTF-8'"?>
<properties>
 <property key='"actionPath'">/ExtStr2/do/jpspid/Registration/entry.action</property>
 </properties>"|1|
jpwebdynamicform_message_form|"<?xml version='"1.0'" encoding='"UTF-8'"?>
<properties>
<property key='"en'">Dynamic Web Forms - Publish the form for a Message Type</property>
<property key='"it'">Dynamic Web Forms - Pubblica il form di un tipo di Messaggio</property>
</properties>"|"<config>
	<parameter name='"typeCode'">Code of the Message Type</parameter>
	<parameter name='"formProtectionType'">Protection type of the form</parameter>
	<action name='"webdynamicformConfig'"/>
</config>"|jpwebdynamicform|||1|
jpwebdynamicform_message_choice|"<?xml version='"1.0'" encoding='"UTF-8'"?>
<properties>
<property key='"en'">Dynamic Web Forms - Choice of a type of Message</property>
<property key='"it'">Dynamic Web Forms - Scelta tipo di Messaggio</property>
</properties>"||jpwebdynamicform|formAction|"<?xml version='"1.0'" encoding='"UTF-8'"?>
<properties>
<property key='"actionPath'">/ExtStr2/do/jpwebdynamicform/Message/User/listTypes</property>
</properties>"|1|
jpcomcaspid_user_registration_profile|"<?xml version='"1.0'" encoding='"UTF-8'"?>
<properties><property key='"en'">Spid - Comune Cagliari - Registrazione Utente</property><property key='"it'">Spid - Comune Cagliari - Registrazione Utente</property></properties>
"||jpspid|formAction|"<?xml version='"1.0'" encoding='"UTF-8'"?>
<properties>
 <property key='"actionPath'">/ExtStr2/do/jpspid/CaRegistration/entry.action</property>
 </properties>"|1|
so_menu_albo_pretorio|"<?xml version='"1.0'" encoding='"UTF-8'"?>
<properties><property key='"en'">Servizi Online - Menu Albo Pretorio</property><property key='"it'">Servizi Online - Menu Albo Pretorio</property></properties>
"|||||0|free
bachecaAttiJIride_attiInterniAlbo|"<?xml version='"1.0'" encoding='"UTF-8'"?>
<properties>
<property key='"en'">Bacheca Atti - Atti Interni Albo Pretorio (Sistema JIride)</property>
<property key='"it'">Bacheca Atti - Atti Interni Albo Pretorio (Sistema JIride)</property>
</properties>"|||formAction|"<?xml version='"1.0'" encoding='"UTF-8'"?>
<properties>
<property key='"actionPath'">/ExtStr2/do/ComuneCagliari/bachecaAttiJIride/attiInterniEntry.action</property>
</properties>"|1|
bachecaAttiJIride_attiEsterniAlbo|"<?xml version='"1.0'" encoding='"UTF-8'"?>
<properties>
<property key='"en'">Bacheca Atti - Atti Esterni Albo Pretorio (Sistema JIride)</property>
<property key='"it'">Bacheca Atti - Atti Esterni Albo Pretorio (Sistema JIride)</property>
</properties>"|||formAction|"<?xml version='"1.0'" encoding='"UTF-8'"?>
<properties>
<property key='"actionPath'">/ExtStr2/do/ComuneCagliari/bachecaAttiJIride/attiEsterniEntry.action</property>
</properties>"|1|
bachecaAttiJIride_attiConsVerbaliSedute|"<?xml version='"1.0'" encoding='"UTF-8'"?>
<properties>
<property key='"en'">Bacheca Atti - Verbali delle Sedute del Consiglio Comunale (Sistema JIride)</property>
<property key='"it'">Bacheca Atti - Verbali delle Sedute del Consiglio Comunale (Sistema JIride)</property>
</properties>"|||formAction|"<?xml version='"1.0'" encoding='"UTF-8'"?>
<properties>
<property key='"actionPath'">/ExtStr2/do/ComuneCagliari/bachecaAttiJIride/attiConsiglioVerbaliSeduteEntry.action</property>
</properties>"|1|
bachecaAttiJIride_attiConsVerbaliCCP|"<?xml version='"1.0'" encoding='"UTF-8'"?>
<properties>
<property key='"en'">Bacheca Atti - Verbali delle Commissioni Consiliari Permanenti (Sistema JIride)</property>
<property key='"it'">Bacheca Atti - Verbali delle Commissioni Consiliari Permanenti (Sistema JIride)</property>
</properties>"|||formAction|"<?xml version='"1.0'" encoding='"UTF-8'"?>
<properties>
<property key='"actionPath'">/ExtStr2/do/ComuneCagliari/bachecaAttiJIride/attiConsiglioVerbaliCCPEntry.action</property>
</properties>"|1|
bachecaAttiJIride_attiConsVerbaliPO|"<?xml version='"1.0'" encoding='"UTF-8'"?>
<properties>
<property key='"en'">Bacheca Atti - Atti Consiglio - Verbali Commissione Pari Opportunità (Sistema JIride)</property>
<property key='"it'">Bacheca Atti - Atti Consiglio - Verbali Commissione Pari Opportunità (Sistema JIride)</property>
</properties>"|||formAction|"<?xml version='"1.0'" encoding='"UTF-8'"?>
<properties>
<property key='"actionPath'">/ExtStr2/do/ComuneCagliari/bachecaAttiJIride/attiConsiglioVerbaliPOEntry.action</property>
</properties>"|1|
jpspid_editCurrentUser_profile|"<?xml version='"1.0'" encoding='"UTF-8'"?>
<properties>
<property key='"en'">Spid - Edit Current User Profile</property>
<property key='"it'">Spid - Edita Profilo Utente Corrente</property>
</properties>"||jpspid|formAction|"<?xml version='"1.0'" encoding='"UTF-8'"?>
<properties>
<property key='"actionPath'">/ExtStr2/do/jpspid/Registration/Profile/edit.action</property>
</properties>"|1|
bachecaAttiJIride_attiArchivio|"<?xml version='"1.0'" encoding='"UTF-8'"?>
<properties>
<property key='"en'">Bacheca Atti - Atti Archivio (Sistema JIride)</property>
<property key='"it'">Bacheca Atti - Atti Archivio (Sistema JIride)</property>
</properties>"|||formAction|"<?xml version='"1.0'" encoding='"UTF-8'"?>
<properties>
<property key='"actionPath'">/ExtStr2/do/ComuneCagliari/bachecaAttiJIride/attiArchivioEntry.action</property>
</properties>"|1|
bachecaAttiJIride_attiConsVerbali|"<?xml version='"1.0'" encoding='"UTF-8'"?>
<properties>
<property key='"en'">Bacheca Atti - Atti Consiglio - Archivio Verbali (Sistema JIride)</property>
<property key='"it'">Bacheca Atti - Atti Consiglio - Archivio Verbali (Sistema JIride)</property>
</properties>"|||formAction|"<?xml version='"1.0'" encoding='"UTF-8'"?>
<properties>
<property key='"actionPath'">/ExtStr2/do/ComuneCagliari/bachecaAttiJIride/attiConsiglioVerbaliEntry.action</property>
</properties>"|1|
so_menu_archivio_atti|"<?xml version='"1.0'" encoding='"UTF-8'"?>
<properties><property key='"en'">Servizi Online - Menu Archivio Atti</property><property key='"it'">Servizi Online - Menu Archivio Atti</property></properties>
"|||||0|free
bachecaAttiIride_attiConsVerbaliPO|"<?xml version='"1.0'" encoding='"UTF-8'"?>
<properties>
<property key='"en'">Bacheca Atti - Atti Consiglio - Verbali Commissione Pari Opportunità (Sistema Iride)</property>
<property key='"it'">Bacheca Atti - Atti Consiglio - Verbali Commissione Pari Opportunità (Sistema Iride)</property>
</properties>"|||formAction|"<?xml version='"1.0'" encoding='"UTF-8'"?>
<properties>
<property key='"actionPath'">/ExtStr2/do/ComuneCagliari/bachecaAttiIride/attiConsiglioVerbaliPOEntry.action</property>
</properties>"|1|
bachecaAttiIride_attiArchivio|"<?xml version='"1.0'" encoding='"UTF-8'"?>
<properties>
<property key='"en'">Bacheca Atti - Atti Archivio (Sistema Iride)</property>
<property key='"it'">Bacheca Atti - Atti Archivio (Sistema Iride)</property>
</properties>"|||formAction|"<?xml version='"1.0'" encoding='"UTF-8'"?>
<properties>
<property key='"actionPath'">/ExtStr2/do/ComuneCagliari/bachecaAttiIride/attiArchivioEntry.action</property>
</properties>"|1|
bachecaAttiIride_attiConsVerbali|"<?xml version='"1.0'" encoding='"UTF-8'"?>
<properties>
<property key='"en'">Bacheca Atti - Atti Consiglio - Archivio Verbali (Sistema Iride)</property>
<property key='"it'">Bacheca Atti - Atti Consiglio - Archivio Verbali (Sistema Iride)</property>
</properties>"|||formAction|"<?xml version='"1.0'" encoding='"UTF-8'"?>
<properties>
<property key='"actionPath'">/ExtStr2/do/ComuneCagliari/bachecaAttiIride/attiConsiglioVerbaliEntry.action</property>
</properties>"|1|
bachecaAttiIride_attiConsConsiglieri|"<?xml version='"1.0'" encoding='"UTF-8'"?>
<properties>
<property key='"en'">Bacheca Atti - Atti Consiglio presentati dai Consiglieri (Sistema Iride)</property>
<property key='"it'">Bacheca Atti - Atti Consiglio presentati dai Consiglieri (Sistema Iride)</property>
</properties>"|||formAction|"<?xml version='"1.0'" encoding='"UTF-8'"?>
<properties>
<property key='"actionPath'">/ExtStr2/do/ComuneCagliari/bachecaAttiIride/attiConsiglioConsiglieriEntry.action</property>
</properties>"|1|
bachecaAttiIride_attiConsApprovazioni|"<?xml version='"1.0'" encoding='"UTF-8'"?>
<properties>
<property key='"en'">Bacheca Atti - Atti approvati Consiglio (Sistema Iride)</property>
<property key='"it'">Bacheca Atti - Atti approvati Consiglio (Sistema Iride)</property>
</properties>"|||formAction|"<?xml version='"1.0'" encoding='"UTF-8'"?>
<properties>
<property key='"actionPath'">/ExtStr2/do/ComuneCagliari/bachecaAttiIride/attiConsiglioApprovazioniEntry.action</property>
</properties>"|1|
bachecaAttiIride_attiConsProposte|"<?xml version='"1.0'" encoding='"UTF-8'"?>
<properties>
<property key='"en'">Bacheca Atti - Proposte di Deliberazione Consiglio (Sistema Iride)</property>
<property key='"it'">Bacheca Atti - Proposte di Deliberazione Consiglio (Sistema Iride)</property>
</properties>"|||formAction|"<?xml version='"1.0'" encoding='"UTF-8'"?>
<properties>
<property key='"actionPath'">/ExtStr2/do/ComuneCagliari/bachecaAttiIride/attiConsiglioProposteEntry.action</property>
</properties>"|1|
bachecaAttiIride_attiConsVerbaliSedute|"<?xml version='"1.0'" encoding='"UTF-8'"?>
<properties>
<property key='"en'">Bacheca Atti - Verbali delle Sedute del Consiglio Comunale (Sistema Iride)</property>
<property key='"it'">Bacheca Atti - Verbali delle Sedute del Consiglio Comunale (Sistema Iride)</property>
</properties>"|||formAction|"<?xml version='"1.0'" encoding='"UTF-8'"?>
<properties>
<property key='"actionPath'">/ExtStr2/do/ComuneCagliari/bachecaAttiIride/attiConsiglioVerbaliSeduteEntry.action</property>
</properties>"|1|
bachecaAttiIride_attiConsVerbaliCCP|"<?xml version='"1.0'" encoding='"UTF-8'"?>
<properties>
<property key='"en'">Bacheca Atti - Verbali delle Commissioni Consiliari Permanenti (Sistema Iride)</property>
<property key='"it'">Bacheca Atti - Verbali delle Commissioni Consiliari Permanenti (Sistema Iride)</property>
</properties>"|||formAction|"<?xml version='"1.0'" encoding='"UTF-8'"?>
<properties>
<property key='"actionPath'">/ExtStr2/do/ComuneCagliari/bachecaAttiIride/attiConsiglioVerbaliCCPEntry.action</property>
</properties>"|1|
bachecaAttiJIride_attiConsApprovazioni|"<?xml version='"1.0'" encoding='"UTF-8'"?>
<properties>
<property key='"en'">Bacheca Atti - Atti approvati Consiglio (Sistema JIride)</property>
<property key='"it'">Bacheca Atti - Atti approvati Consiglio (Sistema JIride)</property>
</properties>"|||formAction|"<?xml version='"1.0'" encoding='"UTF-8'"?>
<properties>
<property key='"actionPath'">/ExtStr2/do/ComuneCagliari/bachecaAttiJIride/attiConsiglioApprovazioniEntry.action</property>
</properties>"|1|
bachecaAttiJIride_attiConsProposte|"<?xml version='"1.0'" encoding='"UTF-8'"?>
<properties>
<property key='"en'">Bacheca Atti - Proposte di Deliberazione Consiglio (Sistema JIride)</property>
<property key='"it'">Bacheca Atti - Proposte di Deliberazione Consiglio (Sistema JIride)</property>
</properties>"|||formAction|"<?xml version='"1.0'" encoding='"UTF-8'"?>
<properties>
<property key='"actionPath'">/ExtStr2/do/ComuneCagliari/bachecaAttiJIride/attiConsiglioProposteEntry.action</property>
</properties>"|1|
bachecaAttiJIride_attiConsConsiglieri|"<?xml version='"1.0'" encoding='"UTF-8'"?>
<properties>
<property key='"en'">Bacheca Atti - Atti Consiglio presentati dai Consiglieri (Sistema JIride)</property>
<property key='"it'">Bacheca Atti - Atti Consiglio presentati dai Consiglieri (Sistema JIride)</property>
</properties>"|||formAction|"<?xml version='"1.0'" encoding='"UTF-8'"?>
<properties>
<property key='"actionPath'">/ExtStr2/do/ComuneCagliari/bachecaAttiJIride/attiConsiglioConsiglieriEntry.action</property>
</properties>"|1|
jptrasparenza_list_avvisi_bandi_inviti|"<?xml version='"1.0'" encoding='"UTF-8'"?>
<properties>
<property key='"en'">Trasparenza - Lista Avvisi, bandi e inviti scaduti con procedura in corso </property>
<property key='"it'">Trasparenza - Lista Avvisi, bandi e inviti scaduti con procedura in corso </property>
</properties>"||jptrasparenza|formAction|"<?xml version='"1.0'" encoding='"UTF-8'"?>
<properties>
<property key='"actionPath'">/ExtStr2/do/FrontEnd/jptrasparenza/BandiEGare/searchAvvisiBandiScadutiProcInCorso.action</property>
</properties>"|1|
registrazione_aziende|"<?xml version='"1.0'" encoding='"UTF-8'"?>
<properties>
<property key='"en'">Registrazione Aziende</property>
<property key='"it'">Registrazione Aziende</property>
</properties>"|||formAction|"<?xml version='"1.0'" encoding='"UTF-8'"?>
<properties>
<property key='"actionPath'">/ExtStr2/do/ComuneCagliari/Front/AssociazioniAziende/listAssociazioni.action</property>
</properties>"|1|free
canile_cani_adottabili|"<?xml version='"1.0'" encoding='"UTF-8'"?>
<properties>
<property key='"en'">Canile - Adozione Cani</property>
<property key='"it'">Canile - Adozione Cani</property>
</properties>"|||formAction|"<properties>
<property key='"actionPath'">/ExtStr2/do/ComuneCagliari/Front/Canile/searchCaniAdottabili.action</property>
</properties>"|1|
elezioni|"<?xml version='"1.0'" encoding='"UTF-8'"?>
<properties>
<property key='"en'">Elezioni - Visualizza una consultazione</property>
<property key='"it'">Elezioni - Visualizza una consultazione</property>
</properties>"|"<config>
 <parameter name='"idConsultazione'">Identificativo della consultazione</parameter>
 <parameter name='"anno'">Anno della consultazione</parameter>
 <action name='"elezioneConfig'"/>
</config>"||||1|free
jppushServiceManager_subscrip|"<?xml version='"1.0'" encoding='"UTF-8'"?>
<properties>
<property key='"en'">Iscrizione servizio notifiche Push</property>
<property key='"it'">Iscrizione servizio notifiche Push</property>
</properties>"|""|jppushservice|formAction|"<?xml version='"1.0'" encoding='"UTF-8'"?>
<properties>
<property key='"actionPath'">/ExtStr2/do/jppushservice/Front/PushServiceRegSubscriber/entrySubscription.action</property>
</properties>"|1|""
jppushServiceManager_unsubscrip|"<?xml version='"1.0'" encoding='"UTF-8'"?>
<properties>
<property key='"en'">Cancellazione iscrizione notifiche Push</property>
<property key='"it'">Cancellazione iscrizione notifiche Push</property>
</properties>"|""|jppushservice|formAction|"<?xml version='"1.0'" encoding='"UTF-8'"?>
<properties>
<property key='"actionPath'">/ExtStr2/do/jppushservice/Front/PushServiceRegSubscriber/entryUnsubscription.action</property>
</properties>"|1|""
jptrasparenza_determina_a_contrarre|"<?xml version='"1.0'" encoding='"UTF-8'"?>
<properties>
<property key='"en'">Trasparenza - Determine a contrarre</property>
<property key='"it'">Trasparenza - Determine a contrarre</property>
</properties>"||jptrasparenza|formAction|"<?xml version='"1.0'" encoding='"UTF-8'"?>
<properties>
<property key='"actionPath'">/ExtStr2/do/FrontEnd/jptrasparenza/BandiEGare/determineAContrarreEntry.action</property>
</properties>"|1|
jptrasparenza_list_avvisi_pre_info|"<?xml version='"1.0'" encoding='"UTF-8'"?>
<properties>
<property key='"en'">Trasparenza - Lista Avvisi Pre Informazione</property>
<property key='"it'">Trasparenza - Lista Avvisi Pre Informazione</property>
</properties>"||jptrasparenza|formAction|"<?xml version='"1.0'" encoding='"UTF-8'"?>
<properties>
<property key='"actionPath'">/ExtStr2/do/FrontEnd/jptrasparenza/BandiEGare/listaAvvisiPreInformazione.action</property>
</properties>"|1|
jptrasparenza_list_commis_agg|"<?xml version='"1.0'" encoding='"UTF-8'"?>
<properties>
<property key='"en'">Trasparenza - Lista Commissioni Aggiudicatrici</property>
<property key='"it'">Trasparenza - Lista Commissioni Aggiudicatrici</property>
</properties>"|"<config>
        <parameter name='"giorniDiPubblicazioni'">Numero di giorni di pubblicazione</parameter>
 <action name='"jptrasparenzaAvvisiAggListViewerConfig'"/>
</config>"|jptrasparenza|||1|
jptrasparenza_list_ditte|"<?xml version='"1.0'" encoding='"UTF-8'"?>
<properties>
<property key='"en'">Trasparenza - Lista Ditte Escluse/Ammesse</property>
<property key='"it'">Trasparenza - Lista Ditte Escluse/Ammesse</property>
</properties>"|"<config>
        <parameter name='"giorniDiPubblicazioni'">Numero di giorni di pubblicazione</parameter>
 <action name='"jptrasparenzaAvvisiAggListViewerConfig'"/>
</config>"|jptrasparenza|||1|
jptrasparenza_anagrafica_proc_details|"<?xml version='"1.0'" encoding='"UTF-8'"?><properties><property key='"en'">Anagrafica procedimenti - dettaglio tipologia procedimento</property><property key='"it'">Anagrafica procedimenti - dettaglio tipologia procedimento</property></properties>"||jptrasparenza|formAction|"<?xml version='"1.0'" encoding='"UTF-8'"?><properties><property key='"actionPath'">/ExtStr2/do/Front/jptrasparenza/AnagraficaProcedimenti/viewTipologiaProcedimento.action</property>
</properties>"|1|free
jptrasparenza_bandiegare|"<?xml version='"1.0'" encoding='"UTF-8'"?>
<properties>
<property key='"en'">Trasparenza - Bandi e Gare</property>
<property key='"it'">Trasparenza - Bandi e Gare</property>
</properties>
"||jptrasparenza|formAction|"<?xml version='"1.0'" encoding='"UTF-8'"?>
<properties>
<property key='"actionPath'">/ExtStr2/do/FrontEnd/jptrasparenza/BandiEGare/listBandiEGare.action</property>
</properties>"|1|free
jptrasparenza_list_resoconti_finanziari|"<?xml version='"1.0'" encoding='"UTF-8'"?>
<properties>
<property key='"en'">Trasparenza - Lista Resoconti Finanziari</property>
<property key='"it'">Trasparenza - Lista Resoconti Finanziari</property>
</properties>"||jptrasparenza|formAction|"<?xml version='"1.0'" encoding='"UTF-8'"?>
<properties>
<property key='"actionPath'">/ExtStr2/do/FrontEnd/jptrasparenza/BandiEGare/searchResocontiFinanziari.action</property>
</properties>"|1|
jptrasparenza_list_avvAgg_esiti_affid|"<?xml version='"1.0'" encoding='"UTF-8'"?>
<properties>
<property key='"en'">Trasparenza - Lista Avvisi di Aggiudicazione, Esiti e Affidamenti</property>
<property key='"it'">Trasparenza - Lista Avvisi di Aggiudicazione, Esiti e Affidamenti</property>
</properties>"|"<config>
        <parameter name='"giorniDiPubblicazioni'">Numero di giorni di pubblicazione del bando e soncessioni</parameter>
 <action name='"jptrasparenzaAvvisiAggListViewerConfig'"/>
</config>"|jptrasparenza|||1|
jptrasparenza_list_avv_bandi_in_scad|"<?xml version='"1.0'" encoding='"UTF-8'"?>
<properties>
<property key='"en'">Trasparenza - Lista Avvisi, bandi e inviti in scadenza</property>
<property key='"it'">Trasparenza - Lista Avvisi, bandi e inviti in scadenza</property>
</properties>"||jptrasparenza|formAction|"<?xml version='"1.0'" encoding='"UTF-8'"?>
<properties>
<property key='"actionPath'">/ExtStr2/do/FrontEnd/jptrasparenza/BandiEGare/searchAvvisiBandiInScadenza.action</property>
</properties>"|1|
cagliari_areapersonale_intro|"<?xml version='"1.0'" encoding='"UTF-8'"?>
<properties>
<property key='"en'">Cagliari - Area personale - Intro</property>
<property key='"it'">Cagliari - Area personale - Intro</property>
</properties>

"|||||0|free
jptrasparenza_list_proc_affidamento|"<?xml version='"1.0'" encoding='"UTF-8'"?>
<properties>
<property key='"en'">Trasparenza - Lista procedure affidamento</property>
<property key='"it'">Trasparenza - Lista procedure affidamento</property>
</properties>"||jptrasparenza|formAction|"<?xml version='"1.0'" encoding='"UTF-8'"?>
<properties>
<property key='"actionPath'">/ExtStr2/do/FrontEnd/jptrasparenza/BandiEGare/searchProcedureAffidamento.action</property>
</properties>"|1|
jptrasparenza_bandiegare_view|"<?xml version='"1.0'" encoding='"UTF-8'"?>
<properties>
<property key='"en'">Trasparenza - Dettaglio Bandi e Gare</property>
<property key='"it'">Trasparenza - Dettaglio Bandi e Gare</property>
</properties>
"||jptrasparenza|formAction|"<?xml version='"1.0'" encoding='"UTF-8'"?>
<properties>
<property key='"actionPath'">/ExtStr2/do/FrontEnd/jptrasparenza/BandiEGare/viewBandiEGare.action</property>
</properties>"|1|free
jptrasparenza_list_avvisi_aggiud|"<?xml version='"1.0'" encoding='"UTF-8'"?>
<properties>
<property key='"en'">Trasparenza - Lista Avvisi di Aggiudicazione</property>
<property key='"it'">Trasparenza - Lista Avvisi di Aggiudicazione</property>
</properties>"|"<config>
        <parameter name='"giorniDiPubblicazioni'">Numero di giorni di pubblicazione del bando e soncessioni</parameter>
 <action name='"jptrasparenzaAvvisiAggListViewerConfig'"/>
</config>"|jptrasparenza|||1|
jptrasparenza_provvedimenti|"<?xml version='"1.0'" encoding='"UTF-8'"?>
<properties>
<property key='"en'">Trasparenza - Lista Provvedimenti</property>
<property key='"it'">Trasparenza - Lista Provvedimenti</property>
</properties>
"||jptrasparenza|formAction|"<?xml version='"1.0'" encoding='"UTF-8'"?>
<properties>
<property key='"actionPath'">/ExtStr2/do/FrontEnd/jptrasparenza/BandiEGare/listProvvedimenti.action</property>
</properties>"|1|free
jptrasparenza_anagrafica_proc|"<?xml version='"1.0'" encoding='"UTF-8'"?><properties><property key='"en'">Anagrafica procedimenti - ricerca procedimenti</property><property key='"it'">Anagrafica procedimenti - ricerca procedimenti</property></properties>"||jptrasparenza|formAction|"<?xml version='"1.0'" encoding='"UTF-8'"?><properties><property key='"actionPath'">/ExtStr2/do/Front/jptrasparenza/AnagraficaProcedimenti/findTipologieProcedimenti.action</property>
</properties>"|1|free
linkToReservedPage|"<?xml version='"1.0'" encoding='"UTF-8'"?>
<properties><property key='"en'">Servizi OnLine - List of links to pages</property><property key='"it'">Servizi OnLine - Lista di link a pagine</property></properties>
"|"<config>
	<parameter name='"links'">Lista dei link alle pagine</parameter>
	<action name='"linkToReservedPageConfig'"/>
</config>"||||1|free
servizio_rimozione_veicoli|"<?xml version='"1.0'" encoding='"UTF-8'"?><properties><property key='"en'">Removal Services - Vehicle search</property><property key='"it'">Servizio Rimozione - ricerca veicoli</property></properties>"|||formAction|"<?xml version='"1.0'" encoding='"UTF-8'"?><properties><property key='"actionPath'">/ExtStr2/do/ComuneCagliari/Front/ServizioRimozioni/findVeicolo.action</property>
</properties>"|1|free
personale_search|"<?xml version='"1.0'" encoding='"UTF-8'"?>
<properties>
<property key='"en'">Rubrica Personale - Ricerca</property>
<property key='"it'">Rubrica Personale - Ricerca</property>
</properties>

"|||formAction|"<?xml version='"1.0'" encoding='"UTF-8'"?>
<properties>
<property key='"actionPath'">/ExtStr2/do/Front/Personale/search.action</property>
</properties>"|1|free
jpstatocivilebooking_newPrenotation|"<?xml version='"1.0'" encoding='"UTF-8'"?>
<properties>
<property key='"en'">Prenotazione certificati stato civile - Nuova Prenotazione</property>
<property key='"it'">Prenotazione certificati stato civile - Nuova Prenotazione</property>
</properties>"||jpstatocivilebooking|formAction|"<?xml version='"1.0'" encoding='"UTF-8'"?>
<properties>
<property key='"actionPath'">/ExtStr2/do/jpstatocivilebooking/FrontEnd/StatoCivileBooking/insert.action</property>
</properties>"|1|
tesseraElettorale|"<?xml version='"1.0'" encoding='"UTF-8'"?>
<properties>
<property key='"en'">Elezioni - Stato tessera elettorale</property>
<property key='"it'">Elezioni - Stato tessera elettorale</property>
</properties>"|||formAction|"<?xml version='"1.0'" encoding='"UTF-8'"?>
<properties>
<property key='"actionPath'">/ExtStr2/do/ComuneCagliari/tessera/search.action</property>
</properties>"|1|free
timbroDigitale|"<?xml version='"1.0'"
encoding='"UTF-8'"?>
<properties>
<property key='"en'">Timbro Digitale</property>
<property key='"it'">Timbro Digitale</property>
</properties>"|||formAction|"<?xml version='"1.0'" encoding='"UTF-8'"?>
<properties>
<property
key='"actionPath'">/ExtStr2/do/ComuneCagliari/Front/Timbro/intro.action</property>
</properties>"|1|free
searchRoad_detail|"<?xml version='"1.0'" encoding='"UTF-8'"?>
<properties>
<property key='"en'">Viario - Dettaglio </property>
<property key='"it'">Viario - Dettaglio </property>
</properties>"|||||1|free
searchRoad_form|"<?xml version='"1.0'" encoding='"UTF-8'"?>
<properties><property key='"en'">Viario - Ricerca</property><property key='"it'">Viario - Ricerca</property></properties>
"|||||1|free
authToExternalService|"<?xml version='"1.0'" encoding='"UTF-8'"?>
<properties><property key='"en'">Istanza OnLine - Wego - (Sistema autenticazione tramite token per servizi esterni)</property><property key='"it'">Istanza OnLine - Wego - (Sistema autenticazione tramite token per servizi esterni)</property></properties>
"|"<config>
	<parameter name='"links'">Lista dei link</parameter>
	<action name='"authListLinkConfig'"/>
</config>"||||1|free
content_atc_type_viewer_list|"<?xml version='"1.0'" encoding='"UTF-8'"?>
<properties>
<property key='"en'">Contents - Publish a List of Contents ''Attribuzioni e Concessioni''</property>
<property key='"it'">Contenuti - Pubblica una Lista di Contenuti ''Attribuzioni e Concessioni''</property>
</properties>

"|"<config>
	<parameter name='"contentType'">Content Type (mandatory)</parameter>
	<parameter name='"modelId'">Content Model</parameter>
	<parameter name='"userFilters'">Front-End user filter options</parameter>
	<parameter name='"category'">Content Category **deprecated**</parameter>
	<parameter name='"categories'">Content Category codes (comma separeted)</parameter>
    <parameter name='"orClauseCategoryFilter'" />
	<parameter name='"maxElemForItem'">Contents for each page</parameter>
	<parameter name='"filters'" />
	<parameter name='"title_{lang}'">Showlet Title in lang {lang}</parameter>
	<parameter name='"pageLink'">The code of the Page to link</parameter>
	<parameter name='"linkDescr_{lang}'">Link description in lang {lang}</parameter>
	<action name='"atclistViewerConfig'"/>
</config>"||||1|free
cagliari_areapersonale_dashboard|"<?xml version='"1.0'" encoding='"UTF-8'"?>
<properties>
<property key='"en'">Cagliari - Area personale - Dashboard STATICO</property>
<property key='"it'">Cagliari - Area personale - Dashboard STATICO</property>
</properties>

"|||||0|free
cagliari_areapersonale_pratiche_dett|"<?xml version='"1.0'" encoding='"UTF-8'"?>
<properties>
<property key='"en'">Cagliari - Area personale - Pratica dettaglio STATICO</property>
<property key='"it'">Cagliari - Area personale - Pratica dettaglio STATICO</property>
</properties>

"|||||0|free
cagliari_widget_cerca_contenuti|"<?xml version='"1.0'" encoding='"UTF-8'"?>
<properties><property key='"en'">Cagliari - Cerca contenuti</property><property key='"it'">Cagliari - Cerca contenuti</property></properties>
"|||||1|free
cagliari_widget_lista_multicontent|"<?xml version='"1.0'" encoding='"UTF-8'"?>
<properties>
<property key='"en'">Cagliari - Lista multi-content</property>
<property key='"it'">Cagliari - Lista multi-content</property>
</properties>"|"<config>
	<parameter name='"contentTypes'">Content Type (mandatory)</parameter>
    <parameter name='"layout'">Layout of content list</parameter>	
	<parameter name='"category'">Content Category **deprecated**</parameter>
	<parameter name='"categories'">Content Category codes (comma separeted)</parameter>
	<parameter name='"orClauseCategoryFilter'" />	
	<parameter name='"maxElements'">Number of contents</parameter>
	<parameter name='"maxElemForItem'">Contents for each page</parameter>
	<parameter name='"filters'" />
	<parameter name='"title_{lang}'">Widget Title in lang {lang}</parameter>
	<parameter name='"pageLink'">The code of the Page to link</parameter>
	<parameter name='"linkDescr_{lang}'">Link description in lang {lang}</parameter>
	<action name='"multiContentListViewerConfig'"/>
</config>"|whitelabel|||1|
